<?xml version="1.0" encoding="utf-8"?>
<!-- Generator: Adobe Illustrator 21.1.0, SVG Export Plug-In . SVG Version: 6.00 Build 0)  -->
<svg version="1.1" id="Layer_1" xmlns="http://www.w3.org/2000/svg" xmlns:xlink="http://www.w3.org/1999/xlink" x="0px" y="0px"
	 viewBox="0 0 80 80" style="enable-background:new 0 0 80 80;" xml:space="preserve">
<style type="text/css">
	.st0{fill:#666666;}
	.st1{fill:#F8F9F7;}
	.st2{fill:#E6E6E6;}
	.st3{fill:#1A1A1A;}
	.st4{fill:#F8F8F8;}
	.st5{fill:none;stroke:#F8F8F8;stroke-width:2;stroke-miterlimit:10;}
	.st6{fill:none;stroke:#F8F9F7;stroke-miterlimit:10;}
	.st7{fill:#F4B322;}
	.st8{fill:#70B548;}
	.st9{fill:#E84343;}
	.st10{fill:#F46219;}
	.st11{fill:#A86B42;}
	.st12{fill:#600E87;}
	.st13{fill:#D76AEA;}
	.st14{fill:#2E74E5;}
	.st15{fill:#063163;}
	.st16{fill:#B2A938;}
	.st17{fill:#494318;}
</style>
<g>
	<g>
		<path class="st9" d="M75,80H5c-2.8,0-5-2.3-5-5V5c0-2.8,2.3-5,5-5h70c2.8,0,5,2.3,5,5v70C80,77.8,77.8,80,75,80z"/>
	</g>
	<g>
		<path class="st1" d="M29.8,66.7v-6.2c0-0.5,0.1-0.9,0.2-1.2c0.1-0.3,0.3-0.5,0.6-0.5h1.2c-0.2,0.5-0.4,1-0.4,1.6v8.7
			c0,0.3-0.1,0.5-0.2,0.6c-0.1,0.1-0.3,0.2-0.6,0.2h-0.9L25,62.2v7.2c0,0.2,0,0.3-0.1,0.4C24.8,70,24.6,70,24.4,70h-1.1V59.7
			c0-0.2,0.1-0.4,0.2-0.6c0.1-0.1,0.3-0.2,0.5-0.2h1L29.8,66.7z"/>
		<path class="st1" d="M36.8,66v3.6c0,0.1,0,0.2-0.1,0.3C36.6,70,36.5,70,36.3,70h-1.1v-8.8c0-0.3,0-0.6,0.1-0.9
			c0.1-0.3,0.2-0.5,0.4-0.7c0.2-0.2,0.4-0.4,0.7-0.5c0.3-0.1,0.6-0.2,0.9-0.2H41c0.4,0,0.7,0.1,0.9,0.2c0.3,0.1,0.5,0.3,0.6,0.5
			c0.2,0.2,0.4,0.4,0.5,0.7c0.1,0.3,0.2,0.5,0.2,0.8v8.4c0,0.1,0,0.2-0.1,0.3C43,70,42.8,70,42.7,70h-1.1v-4.6
			c-0.1,0.1-0.2,0.2-0.4,0.4c-0.2,0.1-0.5,0.2-0.9,0.2H36.8z M36.8,64.3h4.7v-2.8c0-0.3-0.1-0.5-0.3-0.7s-0.4-0.3-0.7-0.3h-3
			c-0.2,0-0.4,0.1-0.6,0.3c-0.2,0.2-0.2,0.4-0.2,0.5V64.3z"/>
		<path class="st1" d="M51.7,60.6h-1.5v9c0,0.1,0,0.2-0.1,0.3C50,70,49.9,70,49.6,70h-1.1v-9.4h-3.2v-1.1c0-0.2,0-0.3,0.1-0.4
			c0.1-0.1,0.2-0.1,0.4-0.1h5.9c0.6,0,1.2-0.1,1.6-0.4v1.2c0,0.1,0,0.1,0,0.2c0,0.1-0.1,0.1-0.1,0.2c-0.1,0.1-0.3,0.2-0.5,0.3
			C52.5,60.5,52.2,60.6,51.7,60.6z"/>
	</g>
	<g>
		<circle class="st1" cx="40.6" cy="30.1" r="6.1"/>
	</g>
	<g>
		<g>
			<polygon class="st1" points="32.4,23.5 31.6,17 29.9,18.7 29.9,18.7 29.6,19.1 28,20.7 27.6,21 27.6,21 25.9,22.7 			"/>
		</g>
		<g>
			<rect x="23.1" y="8" transform="matrix(0.7071 -0.7071 0.7071 0.7071 -3.7185 21.546)" class="st1" width="2" height="14.5"/>
		</g>
	</g>
	<g>
		<g>
			<polygon class="st1" points="30.9,29.7 25.7,25.7 25.7,28.1 25.7,28.1 25.7,28.6 25.7,30.8 25.7,31.4 25.7,31.4 25.7,33.8 			"/>
		</g>
		<g>
			<rect x="11.9" y="28.7" class="st1" width="14.5" height="2"/>
		</g>
	</g>
	<g>
		<g>
			<polygon class="st1" points="33.1,36.1 26.6,36.9 28.3,38.6 28.3,38.6 28.7,38.9 30.3,40.5 30.6,40.9 30.6,40.9 32.3,42.6 			"/>
		</g>
		<g>
			
				<rect x="17.6" y="43.3" transform="matrix(0.7071 -0.7071 0.7071 0.7071 -24.0645 30.5746)" class="st1" width="14.5" height="2"/>
		</g>
	</g>
	<g>
		<g>
			<polygon class="st1" points="69.7,30.1 64.5,26 64.5,28.4 64.5,28.4 64.5,29 64.5,31.2 64.5,31.7 64.5,31.7 64.5,34.1 			"/>
		</g>
		<g>
			<rect x="50.7" y="29.1" class="st1" width="14.5" height="2"/>
		</g>
	</g>
</g>
</svg>
