<?xml version="1.0" encoding="utf-8"?>
<!-- Generator: Adobe Illustrator 21.1.0, SVG Export Plug-In . SVG Version: 6.00 Build 0)  -->
<svg version="1.1" id="Layer_1" xmlns="http://www.w3.org/2000/svg" xmlns:xlink="http://www.w3.org/1999/xlink" x="0px" y="0px"
	 viewBox="0 0 80 80" style="enable-background:new 0 0 80 80;" xml:space="preserve">
<style type="text/css">
	.st0{fill:#666666;}
	.st1{fill:#F8F9F7;}
	.st2{fill:#E6E6E6;}
	.st3{fill:#1A1A1A;}
	.st4{fill:#F8F8F8;}
	.st5{fill:none;stroke:#F8F8F8;stroke-width:2;stroke-miterlimit:10;}
	.st6{fill:none;stroke:#F8F9F7;stroke-miterlimit:10;}
	.st7{fill:#F4B322;}
	.st8{fill:#70B548;}
	.st9{fill:#E84343;}
	.st10{fill:#F46219;}
	.st11{fill:#A86B42;}
	.st12{fill:#D76AEA;}
	.st13{fill:#5095F9;}
	.st14{fill:#063163;}
	.st15{fill:#B2A938;}
	.st16{fill:#494318;}
	.st17{fill:#600E87;}
</style>
<g>
	<g>
		<path class="st0" d="M75,80H5c-2.8,0-5-2.3-5-5V5c0-2.8,2.3-5,5-5h70c2.8,0,5,2.3,5,5v70C80,77.8,77.8,80,75,80z"/>
	</g>
	<g>
		<path class="st1" d="M26.1,70.6v-9.9c0-0.1,0-0.2,0.1-0.3c0.1-0.1,0.2-0.1,0.4-0.1h1c0.1,0,0.2,0,0.2,0c0.1,0,0.1,0,0.1,0.1
			c0,0,0.1,0.1,0.1,0.1c0,0.1,0.1,0.1,0.1,0.1l2.5,4.3c0,0,0,0.1,0.1,0.1c0.1,0,0.1,0.1,0.2,0.1c0,0,0.1,0,0.1-0.1
			c0.1,0,0.1-0.1,0.1-0.1l2.5-4.1c0.1-0.1,0.2-0.3,0.4-0.4s0.4-0.2,0.6-0.2h1.1v9.9c0,0.1,0,0.2-0.1,0.3c-0.1,0.1-0.2,0.1-0.3,0.1
			h-1.1v-7.8l-1.6,2.8c-0.2,0.3-0.4,0.5-0.7,0.8c-0.3,0.2-0.6,0.3-0.9,0.3s-0.6-0.1-0.9-0.3c-0.3-0.2-0.5-0.4-0.6-0.7l-1.8-3.1v7.5
			c0,0.1,0,0.2-0.1,0.3c-0.1,0.1-0.2,0.1-0.3,0.1H26.1z"/>
		<path class="st1" d="M43.5,68.4v-6.8c0-0.1,0-0.2,0-0.4c0-0.1,0-0.3,0.1-0.4c0-0.1,0.1-0.3,0.2-0.4c0.1-0.1,0.2-0.2,0.4-0.2h1.2
			c-0.2,0.4-0.3,0.9-0.3,1.4v7.1c0,0.5-0.2,1-0.5,1.3c-0.4,0.3-0.8,0.5-1.3,0.5h-3.7c-0.3,0-0.6-0.1-0.8-0.2
			c-0.2-0.1-0.4-0.3-0.6-0.4c-0.2-0.2-0.3-0.4-0.4-0.6c-0.1-0.2-0.1-0.5-0.1-0.7v-7.9c0-0.1,0-0.2,0.1-0.3c0.1-0.1,0.2-0.1,0.3-0.1
			h1.1v8.1c0,0.2,0.1,0.3,0.2,0.5c0.1,0.1,0.3,0.2,0.5,0.2h3c0.2,0,0.3-0.1,0.5-0.2C43.4,68.7,43.5,68.6,43.5,68.4z"/>
		<path class="st1" d="M51.6,65.6l3.2,5h-2l-2.5-4.2c0,0-0.1-0.1-0.1-0.1c0,0-0.1,0-0.1,0H50L50,66.4v0.1l-2,3.7
			c-0.1,0.1-0.2,0.3-0.3,0.3c-0.1,0.1-0.3,0.1-0.4,0.1H46l2.7-5L46,60.7c-0.1-0.1-0.1-0.3-0.1-0.3c0-0.1,0.1-0.1,0.2-0.1h1.5
			l2.3,4.4c0,0,0,0.1,0,0.1c0,0,0,0,0.1,0c0,0,0,0.1,0.1,0.1c0.1,0,0.1,0,0.1-0.1c0,0,0-0.1,0.1-0.1l1.6-3.6
			c0.1-0.2,0.3-0.4,0.5-0.5c0.2-0.2,0.5-0.3,0.7-0.3h1.6c-0.1,0.1-0.3,0.2-0.6,0.5c-0.3,0.2-0.5,0.5-0.7,0.9L51.6,65.6z"/>
	</g>
	<g>
		<g>
			<g>
				<polygon class="st1" points="38.6,22.7 37.8,16.2 36.1,17.9 36.1,17.9 35.8,18.2 34.2,19.8 33.8,20.2 33.8,20.2 32.1,21.9 				
					"/>
			</g>
			<g>
				
					<rect x="29.4" y="7.1" transform="matrix(0.7071 -0.7071 0.7071 0.7071 -1.2867 25.6805)" class="st1" width="2" height="14.5"/>
			</g>
		</g>
		<g>
			<g>
				<polygon class="st1" points="37.1,28.9 31.9,24.8 31.9,27.2 31.9,27.2 31.9,27.8 31.9,30 31.9,30.5 31.9,30.5 31.9,32.9 				"/>
			</g>
			<g>
				<rect x="18.1" y="27.9" class="st1" width="14.5" height="2"/>
			</g>
		</g>
		<g>
			<g>
				<polygon class="st1" points="39.3,35.2 32.8,36 34.5,37.7 34.5,37.7 34.9,38.1 36.5,39.6 36.9,40 36.9,40 38.6,41.7 				"/>
			</g>
			<g>
				
					<rect x="23.8" y="42.5" transform="matrix(0.7071 -0.7071 0.7071 0.7071 -21.6327 34.7092)" class="st1" width="14.5" height="2"/>
			</g>
		</g>
		<g>
			<g>
				<polygon class="st1" points="63.5,29.2 55.9,23.2 55.9,26.8 55.9,26.8 55.9,27.6 55.9,30.8 55.9,31.6 55.9,31.6 55.9,35.2 				
					"/>
			</g>
			<g>
				<rect x="42.8" y="27.2" class="st1" width="14.2" height="4"/>
			</g>
		</g>
	</g>
</g>
</svg>
