<?xml version="1.0" encoding="utf-8"?>
<!-- Generator: Adobe Illustrator 21.1.0, SVG Export Plug-In . SVG Version: 6.00 Build 0)  -->
<svg version="1.1" id="Layer_1" xmlns="http://www.w3.org/2000/svg" xmlns:xlink="http://www.w3.org/1999/xlink" x="0px" y="0px"
	 viewBox="0 0 80 80" style="enable-background:new 0 0 80 80;" xml:space="preserve">
<style type="text/css">
	.st0{fill:#666666;}
	.st1{fill:#F8F9F7;}
	.st2{fill:#E6E6E6;}
	.st3{fill:#1A1A1A;}
	.st4{fill:#F8F8F8;}
	.st5{fill:none;stroke:#F8F8F8;stroke-width:2;stroke-miterlimit:10;}
	.st6{fill:none;stroke:#F8F9F7;stroke-miterlimit:10;}
	.st7{fill:#F4B322;}
	.st8{fill:#70B548;}
	.st9{fill:#E84343;}
	.st10{fill:#F46219;}
	.st11{fill:#A86B42;}
	.st12{fill:#600E87;}
	.st13{fill:#D76AEA;}
	.st14{fill:#2E74E5;}
	.st15{fill:#063163;}
	.st16{fill:#B2A938;}
	.st17{fill:#494318;}
</style>
<g>
	<g>
		<path class="st11" d="M75,80H5c-2.8,0-5-2.3-5-5V5c0-2.8,2.3-5,5-5h70c2.8,0,5,2.3,5,5v70C80,77.8,77.8,80,75,80z"/>
	</g>
	<g>
		<path class="st1" d="M31,59.5v1.3c0,0.2,0.1,0.4,0.2,0.6c0.2,0.2,0.4,0.2,0.6,0.2h3.3c0.3,0,0.6,0.1,0.9,0.2
			c0.3,0.1,0.5,0.3,0.7,0.5c0.2,0.2,0.4,0.5,0.5,0.7c0.1,0.3,0.2,0.5,0.2,0.8v2.1c0,0.3-0.1,0.6-0.2,0.8c-0.1,0.3-0.3,0.5-0.5,0.7
			c-0.2,0.2-0.4,0.4-0.7,0.5c-0.3,0.1-0.6,0.2-0.9,0.2h-5.5V67c0-0.2,0-0.3,0.1-0.4c0.1-0.1,0.2-0.1,0.4-0.1h4.7
			c0.2,0,0.4-0.1,0.6-0.2c0.2-0.2,0.3-0.4,0.3-0.6v-1.5c0-0.2-0.1-0.4-0.3-0.6c-0.2-0.2-0.4-0.2-0.6-0.2h-3.4
			c-0.3,0-0.6-0.1-0.8-0.2c-0.3-0.1-0.5-0.3-0.7-0.5c-0.2-0.2-0.4-0.4-0.5-0.7c-0.1-0.3-0.1-0.6-0.1-0.9v-1.9c0-0.3,0-0.5,0.1-0.8
			c0.1-0.3,0.3-0.5,0.5-0.7c0.2-0.2,0.4-0.4,0.7-0.5c0.3-0.1,0.5-0.2,0.8-0.2h3.6c0.6,0,1.2-0.1,1.7-0.3V58c0,0.2-0.1,0.3-0.2,0.4
			c-0.1,0.1-0.3,0.1-0.5,0.2c-0.2,0-0.3,0.1-0.5,0.1c-0.2,0-0.4,0-0.5,0h-3.3c-0.2,0-0.4,0.1-0.6,0.2C31,59,31,59.2,31,59.5z"/>
		<path class="st1" d="M42.4,64v3.6c0,0.1,0,0.2-0.1,0.3c-0.1,0.1-0.2,0.1-0.4,0.1h-1.1v-8.8c0-0.3,0-0.6,0.1-0.9
			c0.1-0.3,0.2-0.5,0.4-0.7c0.2-0.2,0.4-0.4,0.7-0.5c0.3-0.1,0.6-0.2,0.9-0.2h3.6c0.4,0,0.7,0.1,0.9,0.2c0.3,0.1,0.5,0.3,0.6,0.5
			c0.2,0.2,0.4,0.4,0.5,0.7c0.1,0.3,0.2,0.5,0.2,0.8v8.4c0,0.1,0,0.2-0.1,0.3c-0.1,0.1-0.2,0.1-0.4,0.1h-1.1v-4.6
			c-0.1,0.1-0.2,0.2-0.4,0.4C46.5,64,46.2,64,45.8,64H42.4z M42.4,62.4h4.7v-2.8c0-0.3-0.1-0.5-0.3-0.7c-0.2-0.2-0.4-0.3-0.7-0.3h-3
			c-0.2,0-0.4,0.1-0.6,0.3c-0.2,0.2-0.2,0.4-0.2,0.5V62.4z"/>
	</g>
	<g>
		<g>
			<polygon class="st1" points="44.3,28 12.8,27.3 12.8,25.3 43.2,25.9 44.3,24.3 46,25.3 			"/>
		</g>
		<g>
			<polygon class="st1" points="49.2,21.4 48.3,17.2 47.7,19.3 45.8,18.8 48.7,9.3 51.2,20.9 			"/>
		</g>
		<g>
			<polygon class="st1" points="59.4,39.6 57,19.5 54.4,27.3 52.5,26.6 58,10.4 60.1,28.3 62,20.3 66,20.3 66,22.3 63.6,22.3 			"/>
		</g>
		<g>
			<path class="st1" d="M38.7,44.9c-2.9,0-5.7-1-8-2.8c-2.7-2.1-4.4-5.2-4.8-8.6c-0.8-7.1,4.2-13.5,11.3-14.3
				c7.1-0.8,13.5,4.2,14.3,11.3l0,0c0.4,3.4-0.6,6.8-2.7,9.5c-2.1,2.7-5.2,4.4-8.6,4.8C39.7,44.8,39.2,44.9,38.7,44.9z M38.7,21.1
				c-0.4,0-0.9,0-1.3,0.1c-6,0.7-10.3,6.1-9.6,12.1c0.3,2.9,1.8,5.5,4.1,7.3c2.3,1.8,5.1,2.6,8,2.3c2.9-0.3,5.5-1.8,7.3-4.1
				c1.8-2.3,2.6-5.1,2.3-8l0,0c-0.3-2.9-1.8-5.5-4.1-7.3C43.5,21.9,41.2,21.1,38.7,21.1z"/>
		</g>
		<g>
			<path class="st1" d="M59.1,48.4L59.1,48.4c-0.6,0.8-1.8,0.9-2.6,0.3l-8.4-6.6c-0.8-0.6-0.9-1.8-0.3-2.6l0,0
				c0.6-0.8,1.8-0.9,2.6-0.3l8.4,6.6C59.6,46.5,59.7,47.6,59.1,48.4z"/>
		</g>
	</g>
</g>
</svg>
