<?xml version="1.0" encoding="utf-8"?>
<!-- Generator: Adobe Illustrator 21.1.0, SVG Export Plug-In . SVG Version: 6.00 Build 0)  -->
<svg version="1.1" id="Layer_1" xmlns="http://www.w3.org/2000/svg" xmlns:xlink="http://www.w3.org/1999/xlink" x="0px" y="0px"
	 viewBox="0 0 80 80" style="enable-background:new 0 0 80 80;" xml:space="preserve">
<style type="text/css">
	.st0{fill:#666666;}
	.st1{fill:#F8F9F7;}
	.st2{fill:#E6E6E6;}
	.st3{fill:#1A1A1A;}
	.st4{fill:#F8F8F8;}
	.st5{fill:none;stroke:#F8F8F8;stroke-width:2;stroke-miterlimit:10;}
	.st6{fill:none;stroke:#F8F9F7;stroke-miterlimit:10;}
	.st7{fill:#F4B322;}
	.st8{fill:#70B548;}
	.st9{fill:#E84343;}
	.st10{fill:#F46219;}
	.st11{fill:#A86B42;}
	.st12{fill:#600E87;}
	.st13{fill:#D76AEA;}
	.st14{fill:#2E74E5;}
	.st15{fill:#063163;}
	.st16{fill:#B2A938;}
	.st17{fill:#494318;}
</style>
<g>
	<g>
		<path class="st14" d="M75,80H5c-2.8,0-5-2.3-5-5V5c0-2.8,2.3-5,5-5h70c2.8,0,5,2.3,5,5v70C80,77.8,77.8,80,75,80z"/>
	</g>
	<g>
		<path class="st1" d="M30.7,61.4v1.3c0,0.2,0.1,0.4,0.2,0.6c0.2,0.2,0.4,0.2,0.6,0.2h3.3c0.3,0,0.6,0.1,0.9,0.2
			c0.3,0.1,0.5,0.3,0.7,0.5c0.2,0.2,0.4,0.5,0.5,0.7s0.2,0.5,0.2,0.8v2.1c0,0.3-0.1,0.6-0.2,0.8s-0.3,0.5-0.5,0.7
			c-0.2,0.2-0.4,0.4-0.7,0.5C35.4,70,35.1,70,34.8,70h-5.5v-1.1c0-0.2,0-0.3,0.1-0.4c0.1-0.1,0.2-0.1,0.4-0.1h4.7
			c0.2,0,0.4-0.1,0.6-0.2c0.2-0.2,0.3-0.4,0.3-0.6V66c0-0.2-0.1-0.4-0.3-0.6c-0.2-0.2-0.4-0.2-0.6-0.2h-3.4c-0.3,0-0.6-0.1-0.8-0.2
			c-0.3-0.1-0.5-0.3-0.7-0.5c-0.2-0.2-0.4-0.4-0.5-0.7C29.1,63.6,29,63.3,29,63v-1.9c0-0.3,0-0.5,0.1-0.8c0.1-0.3,0.3-0.5,0.5-0.7
			c0.2-0.2,0.4-0.4,0.7-0.5c0.3-0.1,0.5-0.2,0.8-0.2h3.6c0.6,0,1.2-0.1,1.7-0.3v1.3c0,0.2-0.1,0.3-0.2,0.4c-0.1,0.1-0.3,0.1-0.5,0.2
			c-0.2,0-0.3,0.1-0.5,0.1c-0.2,0-0.4,0-0.5,0h-3.3c-0.2,0-0.4,0.1-0.6,0.2C30.8,61,30.7,61.2,30.7,61.4z"/>
		<path class="st1" d="M40.5,70V59.4c0-0.1,0-0.2,0.1-0.3c0.1-0.1,0.2-0.1,0.4-0.1h1.1c0.1,0,0.2,0,0.3,0c0.1,0,0.1,0,0.1,0.1
			c0,0,0.1,0.1,0.1,0.1c0,0.1,0.1,0.1,0.1,0.1l2.6,4.6c0,0,0,0.1,0.1,0.1c0.1,0,0.1,0.1,0.2,0.1c0,0,0.1,0,0.1-0.1
			c0.1,0,0.1-0.1,0.1-0.1l2.6-4.4c0.1-0.2,0.3-0.3,0.4-0.4c0.2-0.1,0.4-0.2,0.6-0.2h1.2v10.6c0,0.1,0,0.2-0.1,0.3
			C50.6,70,50.5,70,50.4,70h-1.2v-8.3l-1.8,3c-0.2,0.3-0.4,0.6-0.7,0.8c-0.3,0.2-0.6,0.4-1,0.4s-0.7-0.1-1-0.3
			c-0.3-0.2-0.5-0.4-0.7-0.8l-1.9-3.3v8.1c0,0.1,0,0.2-0.1,0.3C41.9,70,41.8,70,41.7,70H40.5z"/>
	</g>
	<g>
		<path class="st4" d="M60.4,38.8l-1.2-0.2c-0.2,0-0.4-0.2-0.5-0.5c-0.1-0.3-0.2-0.7-0.4-1c-0.1-0.2-0.1-0.5,0.1-0.7l0.7-1
			c0.2-0.2,0.1-0.6-0.1-0.8l-1.1-1.1c-0.2-0.2-0.5-0.2-0.8-0.1l-1,0.7c-0.2,0.1-0.5,0.2-0.7,0c-0.3-0.2-0.6-0.3-1-0.4
			c-0.2-0.1-0.4-0.3-0.4-0.5L53.8,32c-0.1-0.3-0.3-0.5-0.6-0.5l-1.6,0c-0.3,0-0.5,0.2-0.6,0.5l-0.2,1.2c0,0.2-0.2,0.4-0.5,0.5
			c-0.3,0.1-0.7,0.2-1,0.4c-0.2,0.1-0.5,0.1-0.7-0.1l-1-0.7c-0.2-0.2-0.6-0.1-0.8,0.1l-0.6,0.6l-0.6,0.6c-0.2,0.2-0.2,0.5-0.1,0.8
			l0.7,1c0.1,0.2,0.2,0.5,0,0.7c-0.2,0.3-0.3,0.7-0.4,1c-0.1,0.2-0.3,0.4-0.5,0.5l-1.2,0.2c-0.3,0.1-0.5,0.3-0.5,0.6l0,1.6
			c0,0.3,0.2,0.5,0.5,0.6l1.2,0.2c0.2,0,0.4,0.2,0.5,0.5c0.1,0.3,0.2,0.7,0.4,1c0.1,0.2,0.1,0.5-0.1,0.7l-0.7,1
			c-0.2,0.2-0.1,0.6,0,0.8l0.6,0.6l0.6,0.6c0.2,0.2,0.5,0.2,0.8,0.1l1-0.7c0.2-0.1,0.5-0.2,0.7,0c0.3,0.2,0.6,0.3,1,0.4
			c0.2,0.1,0.4,0.3,0.4,0.5l0.2,1.2c0.1,0.3,0.3,0.5,0.6,0.5l1.6,0c0.3,0,0.5-0.2,0.6-0.5l0.2-1.2c0-0.2,0.2-0.4,0.5-0.5
			c0.3-0.1,0.7-0.2,1-0.4c0.2-0.1,0.5-0.1,0.7,0.1l1,0.7c0.2,0.2,0.6,0.1,0.8-0.1l0.6-0.6l0.6-0.6c0.2-0.2,0.2-0.5,0.1-0.8l-0.7-1
			c-0.1-0.2-0.2-0.5,0-0.7c0.2-0.3,0.3-0.6,0.4-0.9c0.1-0.2,0.3-0.4,0.5-0.4l1.2-0.2c0.3-0.1,0.5-0.3,0.5-0.6l0-1.6
			C60.9,39.1,60.7,38.9,60.4,38.8L60.4,38.8z M54.8,42.6c-1.4,1.4-3.6,1.4-5,0c-1.4-1.4-1.4-3.6,0-5c1.4-1.4,3.6-1.4,5,0
			C56.2,39,56.2,41.2,54.8,42.6L54.8,42.6z M54.8,42.6"/>
	</g>
	<g>
		<g>
			<polygon class="st4" points="43.4,50.1 19.9,50.1 19.9,8.4 46.7,8.4 46.7,28.3 44.7,28.3 44.7,10.4 21.9,10.4 21.9,48.1 
				43.4,48.1 			"/>
		</g>
		<g>
			<path class="st4" d="M41,37.7H25.5V14.2H41V37.7z M27.5,35.7H39V16.2H27.5V35.7z"/>
		</g>
		<g>
			<circle class="st4" cx="33.3" cy="42.7" r="2.3"/>
		</g>
	</g>
</g>
</svg>
