<?xml version="1.0" encoding="utf-8"?>
<!-- Generator: Adobe Illustrator 21.1.0, SVG Export Plug-In . SVG Version: 6.00 Build 0)  -->
<svg version="1.1" id="Layer_1" xmlns="http://www.w3.org/2000/svg" xmlns:xlink="http://www.w3.org/1999/xlink" x="0px" y="0px"
	 viewBox="0 0 80 80" style="enable-background:new 0 0 80 80;" xml:space="preserve">
<style type="text/css">
	.st0{fill:#666666;}
	.st1{fill:#F8F9F7;}
	.st2{fill:#E6E6E6;}
	.st3{fill:#1A1A1A;}
	.st4{fill:#F8F8F8;}
	.st5{fill:none;stroke:#F8F8F8;stroke-width:2;stroke-miterlimit:10;}
	.st6{fill:none;stroke:#F8F9F7;stroke-miterlimit:10;}
	.st7{fill:#F4B322;}
	.st8{fill:#70B548;}
	.st9{fill:#E84343;}
	.st10{fill:#F46219;}
	.st11{fill:#A86B42;}
	.st12{fill:#600E87;}
	.st13{fill:#D76AEA;}
	.st14{fill:#2E74E5;}
	.st15{fill:#063163;}
	.st16{fill:#B2A938;}
	.st17{fill:#494318;}
</style>
<g>
	<g>
		<path class="st11" d="M75,80H5c-2.8,0-5-2.3-5-5V5c0-2.8,2.3-5,5-5h70c2.8,0,5,2.3,5,5v70C80,77.8,77.8,80,75,80z"/>
	</g>
	<g>
		<path class="st1" d="M26.6,64v0.6c0,0.3-0.1,0.6-0.2,0.9c-0.1,0.3-0.3,0.5-0.5,0.7c-0.2,0.2-0.4,0.4-0.7,0.5
			c-0.3,0.1-0.5,0.1-0.8,0.1h-3.9v0.7c0,0.2,0.1,0.4,0.2,0.6c0.2,0.2,0.4,0.2,0.6,0.2h3.3c0.6,0,1.1-0.1,1.6-0.3v1.3
			c0,0.1-0.1,0.2-0.2,0.3c-0.1,0.1-0.3,0.2-0.4,0.2c-0.2,0-0.4,0.1-0.6,0.1s-0.3,0-0.4,0h-3.6c-0.3,0-0.6-0.1-0.9-0.2
			c-0.3-0.1-0.5-0.3-0.7-0.5c-0.2-0.2-0.4-0.4-0.5-0.7c-0.1-0.3-0.2-0.5-0.2-0.8V64c0-0.3,0.1-0.6,0.2-0.8c0.1-0.3,0.3-0.5,0.5-0.7
			c0.2-0.2,0.4-0.3,0.7-0.4c0.3-0.1,0.6-0.2,0.9-0.2h3.3c0.3,0,0.5,0.1,0.8,0.2c0.3,0.1,0.5,0.3,0.7,0.4c0.2,0.2,0.4,0.5,0.5,0.7
			C26.5,63.4,26.6,63.7,26.6,64z M25,64.3v-0.1c0-0.2-0.1-0.4-0.2-0.5c-0.2-0.2-0.4-0.2-0.6-0.2h-2.8c-0.2,0-0.4,0.1-0.6,0.2
			c-0.2,0.2-0.2,0.3-0.2,0.5v1h3.6c0.2,0,0.4-0.1,0.6-0.3C24.9,64.8,25,64.6,25,64.3z"/>
		<path class="st1" d="M32.8,58.9h3c0.3,0,0.5,0.1,0.8,0.2c0.3,0.1,0.5,0.3,0.7,0.5c0.2,0.2,0.4,0.4,0.5,0.6
			c0.1,0.2,0.2,0.5,0.2,0.8v2.8c0,0.6-0.2,1.1-0.6,1.5C37,65.8,36.5,66,35.9,66h-4.2v3.5c0,0.2-0.1,0.3-0.2,0.4
			C31.4,70,31.3,70,31.1,70H30V58.9h1.1c0.1,0,0.2,0,0.3,0.1c0.1,0,0.1,0.1,0.2,0.2c0.2-0.1,0.4-0.1,0.6-0.2
			C32.3,59,32.5,58.9,32.8,58.9z M36.4,63.6v-2.4c0-0.2-0.1-0.4-0.2-0.5c-0.1-0.1-0.3-0.2-0.6-0.2h-3.2c-0.2,0-0.4,0.1-0.6,0.3
			c-0.2,0.2-0.2,0.4-0.2,0.6v2.9h4c0.2,0,0.4-0.1,0.5-0.2C36.4,64,36.4,63.9,36.4,63.6z"/>
		<path class="st1" d="M43.5,60.6c-0.2,0-0.4,0.1-0.5,0.2c-0.2,0.2-0.2,0.4-0.2,0.6v6.2c0,0.2,0.1,0.4,0.2,0.6
			c0.2,0.2,0.3,0.2,0.5,0.2h5v1.1c0,0.2,0,0.3-0.1,0.4C48.3,70,48.1,70,48,70h-4.7c-0.3,0-0.6-0.1-0.9-0.2c-0.3-0.1-0.5-0.3-0.7-0.5
			c-0.2-0.2-0.4-0.4-0.5-0.7c-0.1-0.3-0.2-0.5-0.2-0.8v-6.7c0-0.3,0.1-0.5,0.2-0.8c0.1-0.3,0.3-0.5,0.5-0.7c0.2-0.2,0.4-0.4,0.7-0.5
			c0.3-0.1,0.6-0.2,0.9-0.2h3.6c0.6,0,1.1-0.1,1.6-0.3v1.3c0,0.2-0.1,0.3-0.2,0.4c-0.1,0.1-0.3,0.1-0.5,0.2
			c-0.2,0.1-0.4,0.1-0.6,0.1c-0.2,0-0.3,0-0.4,0H43.5z"/>
		<path class="st1" d="M54.2,60.6c-0.2,0-0.4,0.1-0.5,0.2c-0.2,0.2-0.2,0.4-0.2,0.6v6.2c0,0.2,0.1,0.4,0.2,0.6
			c0.2,0.2,0.3,0.2,0.5,0.2h5v1.1c0,0.2,0,0.3-0.1,0.4C58.9,70,58.8,70,58.6,70h-4.7c-0.3,0-0.6-0.1-0.9-0.2
			c-0.3-0.1-0.5-0.3-0.7-0.5c-0.2-0.2-0.4-0.4-0.5-0.7c-0.1-0.3-0.2-0.5-0.2-0.8v-6.7c0-0.3,0.1-0.5,0.2-0.8
			c0.1-0.3,0.3-0.5,0.5-0.7c0.2-0.2,0.4-0.4,0.7-0.5c0.3-0.1,0.6-0.2,0.9-0.2h3.6c0.6,0,1.1-0.1,1.6-0.3v1.3c0,0.2-0.1,0.3-0.2,0.4
			c-0.1,0.1-0.3,0.1-0.5,0.2c-0.2,0.1-0.4,0.1-0.6,0.1c-0.2,0-0.3,0-0.4,0H54.2z"/>
	</g>
	<g>
		<g>
			<polygon class="st4" points="41.8,50.3 21.1,50.3 21.1,8.2 41,8.2 49.3,14.3 49.3,28.4 47.3,28.4 47.3,15.3 40.3,10.2 23.1,10.2 
				23.1,48.3 41.8,48.3 			"/>
		</g>
		<g>
			<polygon class="st4" points="39.7,18.4 39,9.6 41,9.5 41.5,16 48.3,14.8 48.7,16.8 			"/>
		</g>
		<g>
			<rect x="28.4" y="23.7" class="st4" width="11.9" height="2"/>
		</g>
		<g>
			<rect x="28.4" y="29.3" class="st4" width="11.9" height="2"/>
		</g>
		<g>
			<rect x="28.4" y="35.2" class="st4" width="11.9" height="2"/>
		</g>
	</g>
	<g>
		<g>
			<path class="st4" d="M53.2,45.8c-0.3,0-0.6,0-0.9,0s-0.6,0-0.9,0c-2.4-0.1-4.3-0.5-5.7-1.1c-0.7-0.3-1.2-0.6-1.6-0.9l0,2.2
				c0.9,1.2,4.1,2.3,8.2,2.3c4.2,0,7.3-1.1,8.2-2.3l0-2.2c-0.4,0.4-1,0.7-1.7,0.9C57.5,45.3,55.6,45.7,53.2,45.8L53.2,45.8z
				 M53.2,45.8"/>
		</g>
		<g>
			<path class="st4" d="M44.1,38.6v2.2c0.9,1.1,3.6,2.1,7.3,2.2c0,0,0.1,0,0.1,0c0.1,0,0.2,0,0.3,0c0.1,0,0.3,0,0.5,0
				c0.2,0,0.3,0,0.5,0c0.1,0,0.2,0,0.3,0c0,0,0.1,0,0.1,0c3.7-0.1,6.5-1.2,7.3-2.2v-2.2c-1.6,1.3-5,2-8.2,2
				C49.1,40.6,45.7,39.9,44.1,38.6L44.1,38.6z M44.1,38.6"/>
		</g>
		<g>
			<path class="st4" d="M60.5,34.5c-0.4-1.7-3.2-3.4-8.2-3.4c-5,0-7.8,1.7-8.2,3.4c0,0.1,0,0.1,0,0.2v0.9c0.9,1.2,4.1,2.3,8.2,2.3
				c4.2,0,7.3-1.1,8.2-2.3v-0.9C60.6,34.6,60.6,34.6,60.5,34.5L60.5,34.5z M60.5,34.5"/>
		</g>
	</g>
</g>
</svg>
