<?xml version="1.0" encoding="utf-8"?>
<!-- Generator: Adobe Illustrator 21.1.0, SVG Export Plug-In . SVG Version: 6.00 Build 0)  -->
<svg version="1.1" id="Layer_1" xmlns="http://www.w3.org/2000/svg" xmlns:xlink="http://www.w3.org/1999/xlink" x="0px" y="0px"
	 viewBox="0 0 80 80" style="enable-background:new 0 0 80 80;" xml:space="preserve">
<style type="text/css">
	.st0{fill:#666666;}
	.st1{fill:#F8F9F7;}
	.st2{fill:#E6E6E6;}
	.st3{fill:#1A1A1A;}
	.st4{fill:#F8F8F8;}
	.st5{fill:none;stroke:#F8F8F8;stroke-width:2;stroke-miterlimit:10;}
	.st6{fill:none;stroke:#F8F9F7;stroke-miterlimit:10;}
	.st7{fill:#F4B322;}
	.st8{fill:#70B548;}
	.st9{fill:#E84343;}
	.st10{fill:#F46219;}
	.st11{fill:#A86B42;}
	.st12{fill:#D76AEA;}
	.st13{fill:#5095F9;}
	.st14{fill:#063163;}
	.st15{fill:#B2A938;}
	.st16{fill:#494318;}
	.st17{fill:#600E87;}
</style>
<g>
	<g>
		<path class="st0" d="M75.5,80.5h-70c-2.8,0-5-2.3-5-5v-70c0-2.8,2.3-5,5-5h70c2.8,0,5,2.3,5,5v70C80.5,78.2,78.3,80.5,75.5,80.5z"
			/>
	</g>
	<g>
		<path class="st1" d="M11.1,69.6h2.3c0.5,0,0.9-0.1,1.4-0.3v1.1c0,0.1-0.1,0.2-0.2,0.3c-0.1,0.1-0.3,0.1-0.5,0.2
			C14,71,13.8,71,13.7,71s-0.3,0-0.4,0h-2.5c-0.5,0-0.9-0.2-1.2-0.5C9.1,70.2,9,69.8,9,69.3v-7.5c0-0.1,0-0.2,0.1-0.3
			c0.1-0.1,0.2-0.1,0.3-0.1h1.1V69c0,0.2,0.1,0.4,0.2,0.5C10.8,69.6,10.9,69.6,11.1,69.6z"/>
		<path class="st1" d="M19.9,61.4c0.3,0,0.5,0.1,0.8,0.2c0.3,0.1,0.5,0.3,0.7,0.5c0.2,0.2,0.4,0.4,0.6,0.7c0.1,0.3,0.2,0.6,0.2,1
			v0.7c0,0.4-0.1,0.7-0.3,0.9c-0.2,0.3-0.4,0.5-0.6,0.6c0.3,0.2,0.5,0.4,0.7,0.7c0.2,0.3,0.2,0.6,0.2,1v1c0,0.3-0.1,0.6-0.2,0.9
			c-0.1,0.3-0.3,0.5-0.5,0.7s-0.4,0.4-0.7,0.5C20.6,71,20.3,71,20,71h-4.7v-0.9c0-0.1,0-0.3,0.1-0.4c0.1-0.1,0.2-0.2,0.4-0.2h4.1
			c0.3,0,0.5-0.1,0.7-0.3c0.2-0.2,0.3-0.4,0.3-0.7v-0.8c0-0.3-0.1-0.5-0.3-0.7c-0.2-0.2-0.4-0.3-0.7-0.3h-3.1
			c-0.1,0-0.2-0.1-0.3-0.2c-0.1-0.1-0.1-0.2-0.1-0.4v-0.9h3.4c0.3,0,0.5-0.1,0.7-0.3c0.2-0.2,0.3-0.4,0.3-0.6v-0.9
			c0-0.2-0.1-0.4-0.3-0.6c-0.2-0.2-0.4-0.3-0.6-0.3h-3.9c-0.2,0-0.3-0.1-0.4-0.2c-0.1-0.1-0.1-0.2-0.1-0.4v-0.9H19.9z"/>
		<path class="st1" d="M27.7,63.6v1.2c0,0.2,0.1,0.4,0.2,0.5c0.1,0.1,0.3,0.2,0.5,0.2h2.9c0.3,0,0.5,0.1,0.8,0.2
			c0.2,0.1,0.4,0.2,0.6,0.4c0.2,0.2,0.3,0.4,0.4,0.6c0.1,0.2,0.2,0.5,0.2,0.7v1.8c0,0.3-0.1,0.5-0.2,0.7c-0.1,0.2-0.2,0.4-0.4,0.6
			c-0.2,0.2-0.4,0.3-0.6,0.4C31.9,71,31.6,71,31.3,71h-4.8v-1c0-0.1,0-0.2,0.1-0.3c0.1-0.1,0.2-0.1,0.3-0.1h4.1
			c0.2,0,0.4-0.1,0.5-0.2c0.2-0.1,0.2-0.3,0.2-0.5v-1.3c0-0.2-0.1-0.4-0.2-0.5c-0.2-0.1-0.3-0.2-0.5-0.2h-2.9
			c-0.3,0-0.5-0.1-0.7-0.2s-0.4-0.2-0.6-0.4c-0.2-0.2-0.3-0.4-0.4-0.6c-0.1-0.2-0.1-0.5-0.1-0.8v-1.6c0-0.2,0-0.5,0.1-0.7
			c0.1-0.2,0.2-0.4,0.4-0.6c0.2-0.2,0.4-0.3,0.6-0.4s0.5-0.2,0.7-0.2h3.1c0.5,0,1-0.1,1.5-0.3v1.1c0,0.1-0.1,0.2-0.2,0.3
			c-0.1,0.1-0.3,0.1-0.4,0.2c-0.1,0-0.3,0.1-0.5,0.1c-0.2,0-0.3,0-0.4,0h-2.8c-0.2,0-0.4,0.1-0.5,0.2C27.8,63.2,27.7,63.4,27.7,63.6
			z"/>
		<path class="st1" d="M40,69c0,0.3,0.1,0.4,0.2,0.5c0.2,0.1,0.3,0.1,0.4,0.1h1.2c0.2,0,0.3-0.1,0.5-0.2c0.2-0.1,0.2-0.3,0.2-0.5v-6
			c0-0.1,0-0.2,0-0.4c0-0.2,0-0.3,0.1-0.5c0-0.2,0.1-0.3,0.2-0.4s0.2-0.2,0.4-0.2h1.1c-0.2,0.4-0.4,0.9-0.4,1.4v6.3
			c0,0.3-0.1,0.5-0.2,0.7c-0.1,0.2-0.2,0.4-0.4,0.6c-0.2,0.2-0.4,0.3-0.6,0.4C42.5,71,42.3,71,42,71h-1.7c-0.2,0-0.4,0-0.6-0.1
			c-0.2-0.1-0.4-0.2-0.5-0.3c-0.1,0.1-0.2,0.2-0.4,0.3C38.7,71,38.5,71,38.3,71h-1.8c-0.3,0-0.5-0.1-0.8-0.2
			c-0.2-0.1-0.4-0.2-0.6-0.4c-0.2-0.2-0.3-0.4-0.4-0.6c-0.1-0.2-0.2-0.5-0.2-0.7v-7.3c0-0.1,0.1-0.2,0.2-0.3
			c0.1-0.1,0.2-0.1,0.4-0.1h1v7.5c0,0.2,0.1,0.4,0.2,0.5c0.1,0.1,0.3,0.2,0.5,0.2h1.2c0.2,0,0.4-0.1,0.5-0.2
			c0.1-0.1,0.2-0.3,0.2-0.5v-7c0-0.1,0-0.2,0.1-0.3c0.1-0.1,0.2-0.1,0.3-0.1h1V69z"/>
		<path class="st1" d="M45.1,71v-0.9c0-0.1,0-0.2,0.1-0.3c0.1-0.1,0.2-0.1,0.3-0.1h0.8v-6.9h-1.3v-0.9c0-0.1,0-0.2,0.1-0.3
			c0.1-0.1,0.2-0.1,0.3-0.1h2.1c0.5,0,1-0.1,1.4-0.3v1c0,0.1,0,0.2-0.1,0.3c-0.1,0.1-0.2,0.1-0.3,0.2c-0.1,0.1-0.3,0.1-0.4,0.1
			s-0.3,0-0.4,0v6.9h1.3v1c0,0.1-0.1,0.2-0.2,0.3C48.9,71,48.8,71,48.7,71H45.1z"/>
		<path class="st1" d="M55.2,62.9h-1.3v7.8c0,0.1,0,0.2-0.1,0.3C53.8,71,53.6,71,53.4,71h-1v-8.2h-2.8v-1c0-0.2,0-0.3,0.1-0.4
			c0.1-0.1,0.2-0.1,0.4-0.1h5.1c0.5,0,1-0.1,1.4-0.4v1.1c0,0.1,0,0.1,0,0.2s-0.1,0.1-0.1,0.2c-0.1,0.1-0.2,0.1-0.4,0.2
			C55.9,62.8,55.6,62.9,55.2,62.9z"/>
		<path class="st1" d="M59.4,62.9c-0.2,0-0.3,0.1-0.5,0.2c-0.1,0.1-0.2,0.3-0.2,0.5v5.3c0,0.2,0.1,0.4,0.2,0.5
			c0.1,0.1,0.3,0.2,0.5,0.2h4.3v1c0,0.1,0,0.2-0.1,0.3C63.5,71,63.4,71,63.2,71h-4.1c-0.3,0-0.5-0.1-0.8-0.2
			c-0.2-0.1-0.4-0.2-0.6-0.4c-0.2-0.2-0.3-0.4-0.4-0.6c-0.1-0.2-0.2-0.5-0.2-0.7v-5.8c0-0.2,0.1-0.5,0.2-0.7
			c0.1-0.2,0.2-0.4,0.4-0.6c0.2-0.2,0.4-0.3,0.6-0.4c0.2-0.1,0.5-0.2,0.8-0.2h3.1c0.5,0,1-0.1,1.4-0.3v1.1c0,0.1-0.1,0.2-0.2,0.3
			c-0.1,0.1-0.2,0.1-0.4,0.2c-0.2,0.1-0.3,0.1-0.5,0.1s-0.3,0-0.4,0H59.4z"/>
		<path class="st1" d="M72,62.8v7.9c0,0.1,0,0.2-0.1,0.3C71.8,71,71.7,71,71.5,71h-1v-4.2h-4.1v3.8c0,0.1,0,0.2-0.1,0.3
			C66.2,71,66.1,71,66,71h-1v-9.2c0-0.1,0-0.2,0.1-0.3c0.1-0.1,0.2-0.1,0.3-0.1h1v4h4.1v-2.7c0-0.1,0-0.2,0-0.4s0-0.3,0.1-0.4
			c0-0.1,0.1-0.3,0.2-0.4c0.1-0.1,0.2-0.2,0.3-0.2h1.2C72.1,61.8,72,62.3,72,62.8z"/>
	</g>
	<g>
		<path class="st1" d="M41,40.4c-5.7,0-10.3-4.6-10.3-10.3S35.4,19.9,41,19.9s10.3,4.6,10.3,10.3S46.7,40.4,41,40.4z M41,22.9
			c-4,0-7.3,3.3-7.3,7.3s3.3,7.3,7.3,7.3s7.3-3.3,7.3-7.3S45,22.9,41,22.9z"/>
	</g>
	<g>
		<g>
			<rect x="30.8" y="30" class="st1" width="3" height="15.1"/>
		</g>
		<g>
			<g>
				<polygon class="st1" points="32.3,52.2 26.8,43.2 30,43.2 30,43.2 30.8,43.2 33.8,43.2 34.5,43.2 34.5,43.2 37.7,43.2 				"/>
			</g>
		</g>
	</g>
	<g>
		<g>
			<rect x="48.3" y="14" class="st1" width="3" height="15.1"/>
		</g>
		<g>
			<g>
				<polygon class="st1" points="49.8,6.8 44.3,15.9 47.6,15.9 47.6,15.9 48.3,15.9 51.3,15.9 52,15.9 52,15.9 55.2,15.9 				"/>
			</g>
		</g>
	</g>
	<g>
		<g>
			<rect x="25.3" y="19.9" class="st1" width="15.1" height="3"/>
		</g>
		<g>
			<g>
				<polygon class="st1" points="18.2,21.4 27.2,26.8 27.2,23.6 27.2,23.6 27.2,22.9 27.2,19.9 27.2,19.1 27.2,19.1 27.2,15.9 				
					"/>
			</g>
		</g>
	</g>
	<g>
		<g>
			<rect x="41.4" y="37.4" class="st1" width="15.1" height="3"/>
		</g>
		<g>
			<g>
				<polygon class="st1" points="63.7,38.9 54.7,44.4 54.7,41.1 54.7,41.1 54.7,40.4 54.7,37.4 54.7,36.7 54.7,36.7 54.7,33.4 				
					"/>
			</g>
		</g>
	</g>
</g>
</svg>
